^C:\USERS\RISOVAXA\SOURCE\REPOS\STRAUSTRUP\STRAUSTRUPCPP_GL6\STRAUSTRUPCPP_GL6\DEBUG\STDAFX.OBJ|C:\USERS\RISOVAXA\SOURCE\REPOS\STRAUSTRUP\STRAUSTRUPCPP_GL6\STRAUSTRUPCPP_GL6\DEBUG\STRAUSTRUPCPP_GL6.OBJ
C:\USERS\RISOVAXA\SOURCE\REPOS\STRAUSTRUP\STRAUSTRUPCPP_GL6\DEBUG\STRAUSTRUPCPP_GL6.EXE
C:\USERS\RISOVAXA\SOURCE\REPOS\STRAUSTRUP\STRAUSTRUPCPP_GL6\DEBUG\STRAUSTRUPCPP_GL6.ILK
C:\USERS\RISOVAXA\SOURCE\REPOS\STRAUSTRUP\STRAUSTRUPCPP_GL6\DEBUG\STRAUSTRUPCPP_GL6.PDB
